…
green_data <- green_data %>%
  mutate(
    across(all_of(reversed),
           ~ recode(.x, "1" = 5, "2" = 4, "4" = 2, "5" = 1),
           .names = "{.col}r"))

green_data$student <- recode_factor(green_data$student, '1' = "Non-student", '2' = "Student")

print(green_data)
```

    ## # A tibble: 373 x 51
    ##    id    green1 green2 green3 green4 green5 comp1 comp2 comp3 comp4 comp5 comp6
    ##    <chr>  <dbl>  <dbl>  <dbl>  <dbl>  <dbl> <dbl> <dbl> <dbl> <dbl> <dbl> <dbl>
    ##  1 9099       4      2      5      4      3     2     5     4     4     2     2
    ##  2 6275       3      5      3      3      1     4     5     4     5     5     1
    ##  3 8116       4      2      5      4      3     4     5     5     4     5     1
    ##  4 8586       4      3      5      4      3     4     5     5     4     5     1
    ##  5 0406       3      2      4      4      4     4     4     4     4     4     2
    ##  6 5645       4      3      4      4      3     5     5     5     4     4     2
    ##  7 3788       1      1      1      1      1     3     3     3     3     3     3
    ##  8 8424       4      3      2      2      2     1     1     1     2     2     4
    ##  9 8450       4      2      3      5      2     4     4     4     4     4     1
    ## 10 0512       4      2      5      5      4     5     2     5     4     2     2
    ## # … with 363 more rows, and 39 more variables: comp7 <dbl>, comp8 <dbl>,
    ## #   comp9 <dbl>, comp10 <dbl>, intel1 <dbl>, intel2 <dbl>, intel3 <dbl>,
    ## #   intel4 <dbl>, intel5 <dbl>, intel6 <dbl>, intel7 <dbl>, intel8 <dbl>,
    ## #   intel9 <dbl>, intel10 <dbl>, open1 <dbl>, open2 <dbl>, open3 <dbl>,
    ## #   open4 <dbl>, open5 <dbl>, open6 <dbl>, open7 <dbl>, open8 <dbl>,
    ## #   open9 <dbl>, open10 <dbl>, student <fct>, green2r <dbl>, comp6r <dbl>,
    ## #   comp7r <dbl>, comp8r <dbl>, comp9r <dbl>, comp10r <dbl>, intel7r <dbl>,
    ## #   intel8r <dbl>, intel9r <dbl>, intel10r <dbl>, open7r <dbl>, open8r <dbl>,
    ## #   open9r <dbl>, open10r <dbl>
…
